##########  Rozmiar: 1  ##########
Mamy rozwiązanie 1
H  


##########  Rozmiar: 2  ##########
Nie istnieje rozwiązanie


##########  Rozmiar: 3  ##########
Nie istnieje rozwiązanie


##########  Rozmiar: 4  ##########
Mamy rozwiązanie 1
.  .  H  .  
H  .  .  .  
.  .  .  H  
.  H  .  .  

Mamy rozwiązanie 2
.  H  .  .  
.  .  .  H  
H  .  .  .  
.  .  H  .  


##########  Rozmiar: 5  ##########
Mamy rozwiązanie 1
H  .  .  .  .  
.  .  .  H  .  
.  H  .  .  .  
.  .  .  .  H  
.  .  H  .  .  

Mamy rozwiązanie 2
H  .  .  .  .  
.  .  H  .  .  
.  .  .  .  H  
.  H  .  .  .  
.  .  .  H  .  

Mamy rozwiązanie 3
.  .  H  .  .  
H  .  .  .  .  
.  .  .  H  .  
.  H  .  .  .  
.  .  .  .  H  

Mamy rozwiązanie 4
.  .  .  H  .  
H  .  .  .  .  
.  .  H  .  .  
.  .  .  .  H  
.  H  .  .  .  

Mamy rozwiązanie 5
.  H  .  .  .  
.  .  .  H  .  
H  .  .  .  .  
.  .  H  .  .  
.  .  .  .  H  

Mamy rozwiązanie 6
.  .  .  .  H  
.  .  H  .  .  
H  .  .  .  .  
.  .  .  H  .  
.  H  .  .  .  

Mamy rozwiązanie 7
.  H  .  .  .  
.  .  .  .  H  
.  .  H  .  .  
H  .  .  .  .  
.  .  .  H  .  

Mamy rozwiązanie 8
.  .  .  .  H  
.  H  .  .  .  
.  .  .  H  .  
H  .  .  .  .  
.  .  H  .  .  

Mamy rozwiązanie 9
.  .  .  H  .  
.  H  .  .  .  
.  .  .  .  H  
.  .  H  .  .  
H  .  .  .  .  

Mamy rozwiązanie 10
.  .  H  .  .  
.  .  .  .  H  
.  H  .  .  .  
.  .  .  H  .  
H  .  .  .  .  


##########  Rozmiar: 6  ##########
Mamy rozwiązanie 1
.  .  .  H  .  .  
H  .  .  .  .  .  
.  .  .  .  H  .  
.  H  .  .  .  .  
.  .  .  .  .  H  
.  .  H  .  .  .  

Mamy rozwiązanie 2
.  .  .  .  H  .  
.  .  H  .  .  .  
H  .  .  .  .  .  
.  .  .  .  .  H  
.  .  .  H  .  .  
.  H  .  .  .  .  

Mamy rozwiązanie 3
.  H  .  .  .  .  
.  .  .  H  .  .  
.  .  .  .  .  H  
H  .  .  .  .  .  
.  .  H  .  .  .  
.  .  .  .  H  .  

Mamy rozwiązanie 4
.  .  H  .  .  .  
.  .  .  .  .  H  
.  H  .  .  .  .  
.  .  .  .  H  .  
H  .  .  .  .  .  
.  .  .  H  .  .  