Sudoku: 0
+-----+-----+
| 1 2 | 3 4 |
| 3 4 | 1 2 |
+-----+-----+
| 2 1 | 4 3 |
| 4 3 | 2 1 |
+-----+-----+
Sudoku: 1
+-----+-----+
| 1 2 | 3 4 |
| 3 4 | 1 2 |
+-----+-----+
| 2 3 | 4 1 |
| 4 1 | 2 3 |
+-----+-----+
Sudoku: 2
+-----+-----+
| 1 2 | 3 4 |
| 3 4 | 1 2 |
+-----+-----+
| 4 1 | 2 3 |
| 2 3 | 4 1 |
+-----+-----+
Sudoku: 3
+-----+-----+
| 1 2 | 3 4 |
| 3 4 | 1 2 |
+-----+-----+
| 4 3 | 2 1 |
| 2 1 | 4 3 |
+-----+-----+
Sudoku: 4
+-----+-----+
| 1 2 | 3 4 |
| 3 4 | 2 1 |
+-----+-----+
| 2 1 | 4 3 |
| 4 3 | 1 2 |
+-----+-----+
Sudoku: 5
+-----+-----+
| 1 2 | 3 4 |
| 3 4 | 2 1 |
+-----+-----+
| 4 3 | 1 2 |
| 2 1 | 4 3 |
+-----+-----+
Sudoku: 6
+-----+-----+
| 1 2 | 3 4 |
| 4 3 | 1 2 |
+-----+-----+
| 2 1 | 4 3 |
| 3 4 | 2 1 |
+-----+-----+
Sudoku: 7
+-----+-----+
| 1 2 | 3 4 |
| 4 3 | 1 2 |
+-----+-----+
| 3 4 | 2 1 |
| 2 1 | 4 3 |
+-----+-----+
Sudoku: 8
+-----+-----+
| 1 2 | 3 4 |
| 4 3 | 2 1 |
+-----+-----+
| 2 1 | 4 3 |
| 3 4 | 1 2 |
+-----+-----+
Sudoku: 9
+-----+-----+
| 1 2 | 3 4 |
| 4 3 | 2 1 |
+-----+-----+
| 2 4 | 1 3 |
| 3 1 | 4 2 |
+-----+-----+
Sudoku: 10
+-----+-----+
| 1 2 | 3 4 |
| 4 3 | 2 1 |
+-----+-----+
| 3 1 | 4 2 |
| 2 4 | 1 3 |
+-----+-----+
Sudoku: 11
+-----+-----+
| 1 2 | 3 4 |
| 4 3 | 2 1 |
+-----+-----+
| 3 4 | 1 2 |
| 2 1 | 4 3 |
+-----+-----+
Sudoku: 12
+-----+-----+
| 1 2 | 4 3 |
| 3 4 | 1 2 |
+-----+-----+
| 2 1 | 3 4 |
| 4 3 | 2 1 |
+-----+-----+
Sudoku: 13
+-----+-----+
| 1 2 | 4 3 |
| 3 4 | 1 2 |
+-----+-----+
| 4 3 | 2 1 |
| 2 1 | 3 4 |
+-----+-----+
Sudoku: 14
+-----+-----+
| 1 2 | 4 3 |
| 3 4 | 2 1 |
+-----+-----+
| 2 1 | 3 4 |
| 4 3 | 1 2 |
+-----+-----+
Sudoku: 15
+-----+-----+
| 1 2 | 4 3 |
| 3 4 | 2 1 |
+-----+-----+
| 2 3 | 1 4 |
| 4 1 | 3 2 |
+-----+-----+
Sudoku: 16
+-----+-----+
| 1 2 | 4 3 |
| 3 4 | 2 1 |
+-----+-----+
| 4 1 | 3 2 |
| 2 3 | 1 4 |
+-----+-----+
Sudoku: 17
+-----+-----+
| 1 2 | 4 3 |
| 3 4 | 2 1 |
+-----+-----+
| 4 3 | 1 2 |
| 2 1 | 3 4 |
+-----+-----+
Sudoku: 18
+-----+-----+
| 1 2 | 4 3 |
| 4 3 | 1 2 |
+-----+-----+
| 2 1 | 3 4 |
| 3 4 | 2 1 |
+-----+-----+
Sudoku: 19
+-----+-----+
| 1 2 | 4 3 |
| 4 3 | 1 2 |
+-----+-----+
| 2 4 | 3 1 |
| 3 1 | 2 4 |
+-----+-----+
Sudoku: 20
+-----+-----+
| 1 2 | 4 3 |
| 4 3 | 1 2 |
+-----+-----+
| 3 1 | 2 4 |
| 2 4 | 3 1 |
+-----+-----+
Sudoku: 21
+-----+-----+
| 1 2 | 4 3 |
| 4 3 | 1 2 |
+-----+-----+
| 3 4 | 2 1 |
| 2 1 | 3 4 |
+-----+-----+
Sudoku: 22
+-----+-----+
| 1 2 | 4 3 |
| 4 3 | 2 1 |
+-----+-----+
| 2 1 | 3 4 |
| 3 4 | 1 2 |
+-----+-----+
Sudoku: 23
+-----+-----+
| 1 2 | 4 3 |
| 4 3 | 2 1 |
+-----+-----+
| 3 4 | 1 2 |
| 2 1 | 3 4 |
+-----+-----+
Sudoku: 24
+-----+-----+
| 1 3 | 2 4 |
| 2 4 | 1 3 |
+-----+-----+
| 3 1 | 4 2 |
| 4 2 | 3 1 |
+-----+-----+
Sudoku: 25
+-----+-----+
| 1 3 | 2 4 |
| 2 4 | 1 3 |
+-----+-----+
| 3 2 | 4 1 |
| 4 1 | 3 2 |
+-----+-----+
Sudoku: 26
+-----+-----+
| 1 3 | 2 4 |
| 2 4 | 1 3 |
+-----+-----+
| 4 1 | 3 2 |
| 3 2 | 4 1 |
+-----+-----+
Sudoku: 27
+-----+-----+
| 1 3 | 2 4 |
| 2 4 | 1 3 |
+-----+-----+
| 4 2 | 3 1 |
| 3 1 | 4 2 |
+-----+-----+
Sudoku: 28
+-----+-----+
| 1 3 | 2 4 |
| 2 4 | 3 1 |
+-----+-----+
| 3 1 | 4 2 |
| 4 2 | 1 3 |
+-----+-----+
Sudoku: 29
+-----+-----+
| 1 3 | 2 4 |
| 2 4 | 3 1 |
+-----+-----+
| 4 2 | 1 3 |
| 3 1 | 4 2 |
+-----+-----+
Sudoku: 30
+-----+-----+
| 1 3 | 2 4 |
| 4 2 | 1 3 |
+-----+-----+
| 2 4 | 3 1 |
| 3 1 | 4 2 |
+-----+-----+
Sudoku: 31
+-----+-----+
| 1 3 | 2 4 |
| 4 2 | 1 3 |
+-----+-----+
| 3 1 | 4 2 |
| 2 4 | 3 1 |
+-----+-----+
Sudoku: 32
+-----+-----+
| 1 3 | 2 4 |
| 4 2 | 3 1 |
+-----+-----+
| 2 1 | 4 3 |
| 3 4 | 1 2 |
+-----+-----+
Sudoku: 33
+-----+-----+
| 1 3 | 2 4 |
| 4 2 | 3 1 |
+-----+-----+
| 2 4 | 1 3 |
| 3 1 | 4 2 |
+-----+-----+
Sudoku: 34
+-----+-----+
| 1 3 | 2 4 |
| 4 2 | 3 1 |
+-----+-----+
| 3 1 | 4 2 |
| 2 4 | 1 3 |
+-----+-----+
Sudoku: 35
+-----+-----+
| 1 3 | 2 4 |
| 4 2 | 3 1 |
+-----+-----+
| 3 4 | 1 2 |
| 2 1 | 4 3 |
+-----+-----+
Sudoku: 36
+-----+-----+
| 1 3 | 4 2 |
| 2 4 | 1 3 |
+-----+-----+
| 3 1 | 2 4 |
| 4 2 | 3 1 |
+-----+-----+
Sudoku: 37
+-----+-----+
| 1 3 | 4 2 |
| 2 4 | 1 3 |
+-----+-----+
| 4 2 | 3 1 |
| 3 1 | 2 4 |
+-----+-----+
Sudoku: 38
+-----+-----+
| 1 3 | 4 2 |
| 2 4 | 3 1 |
+-----+-----+
| 3 1 | 2 4 |
| 4 2 | 1 3 |
+-----+-----+
Sudoku: 39
+-----+-----+
| 1 3 | 4 2 |
| 2 4 | 3 1 |
+-----+-----+
| 3 2 | 1 4 |
| 4 1 | 2 3 |
+-----+-----+
Sudoku: 40
+-----+-----+
| 1 3 | 4 2 |
| 2 4 | 3 1 |
+-----+-----+
| 4 1 | 2 3 |
| 3 2 | 1 4 |
+-----+-----+
Sudoku: 41
+-----+-----+
| 1 3 | 4 2 |
| 2 4 | 3 1 |
+-----+-----+
| 4 2 | 1 3 |
| 3 1 | 2 4 |
+-----+-----+
Sudoku: 42
+-----+-----+
| 1 3 | 4 2 |
| 4 2 | 1 3 |
+-----+-----+
| 2 1 | 3 4 |
| 3 4 | 2 1 |
+-----+-----+
Sudoku: 43
+-----+-----+
| 1 3 | 4 2 |
| 4 2 | 1 3 |
+-----+-----+
| 2 4 | 3 1 |
| 3 1 | 2 4 |
+-----+-----+
Sudoku: 44
+-----+-----+
| 1 3 | 4 2 |
| 4 2 | 1 3 |
+-----+-----+
| 3 1 | 2 4 |
| 2 4 | 3 1 |
+-----+-----+
Sudoku: 45
+-----+-----+
| 1 3 | 4 2 |
| 4 2 | 1 3 |
+-----+-----+
| 3 4 | 2 1 |
| 2 1 | 3 4 |
+-----+-----+
Sudoku: 46
+-----+-----+
| 1 3 | 4 2 |
| 4 2 | 3 1 |
+-----+-----+
| 2 4 | 1 3 |
| 3 1 | 2 4 |
+-----+-----+
Sudoku: 47
+-----+-----+
| 1 3 | 4 2 |
| 4 2 | 3 1 |
+-----+-----+
| 3 1 | 2 4 |
| 2 4 | 1 3 |
+-----+-----+
Sudoku: 48
+-----+-----+
| 1 4 | 2 3 |
| 2 3 | 1 4 |
+-----+-----+
| 3 1 | 4 2 |
| 4 2 | 3 1 |
+-----+-----+
Sudoku: 49
+-----+-----+
| 1 4 | 2 3 |
| 2 3 | 1 4 |
+-----+-----+
| 3 2 | 4 1 |
| 4 1 | 3 2 |
+-----+-----+
Sudoku: 50
+-----+-----+
| 1 4 | 2 3 |
| 2 3 | 1 4 |
+-----+-----+
| 4 1 | 3 2 |
| 3 2 | 4 1 |
+-----+-----+
Sudoku: 51
+-----+-----+
| 1 4 | 2 3 |
| 2 3 | 1 4 |
+-----+-----+
| 4 2 | 3 1 |
| 3 1 | 4 2 |
+-----+-----+
Sudoku: 52
+-----+-----+
| 1 4 | 2 3 |
| 2 3 | 4 1 |
+-----+-----+
| 3 2 | 1 4 |
| 4 1 | 3 2 |
+-----+-----+
Sudoku: 53
+-----+-----+
| 1 4 | 2 3 |
| 2 3 | 4 1 |
+-----+-----+
| 4 1 | 3 2 |
| 3 2 | 1 4 |
+-----+-----+
Sudoku: 54
+-----+-----+
| 1 4 | 2 3 |
| 3 2 | 1 4 |
+-----+-----+
| 2 3 | 4 1 |
| 4 1 | 3 2 |
+-----+-----+
Sudoku: 55
+-----+-----+
| 1 4 | 2 3 |
| 3 2 | 1 4 |
+-----+-----+
| 4 1 | 3 2 |
| 2 3 | 4 1 |
+-----+-----+
Sudoku: 56
+-----+-----+
| 1 4 | 2 3 |
| 3 2 | 4 1 |
+-----+-----+
| 2 1 | 3 4 |
| 4 3 | 1 2 |
+-----+-----+
Sudoku: 57
+-----+-----+
| 1 4 | 2 3 |
| 3 2 | 4 1 |
+-----+-----+
| 2 3 | 1 4 |
| 4 1 | 3 2 |
+-----+-----+
Sudoku: 58
+-----+-----+
| 1 4 | 2 3 |
| 3 2 | 4 1 |
+-----+-----+
| 4 1 | 3 2 |
| 2 3 | 1 4 |
+-----+-----+
Sudoku: 59
+-----+-----+
| 1 4 | 2 3 |
| 3 2 | 4 1 |
+-----+-----+
| 4 3 | 1 2 |
| 2 1 | 3 4 |
+-----+-----+
Sudoku: 60
+-----+-----+
| 1 4 | 3 2 |
| 2 3 | 1 4 |
+-----+-----+
| 3 2 | 4 1 |
| 4 1 | 2 3 |
+-----+-----+
Sudoku: 61
+-----+-----+
| 1 4 | 3 2 |
| 2 3 | 1 4 |
+-----+-----+
| 4 1 | 2 3 |
| 3 2 | 4 1 |
+-----+-----+
Sudoku: 62
+-----+-----+
| 1 4 | 3 2 |
| 2 3 | 4 1 |
+-----+-----+
| 3 1 | 2 4 |
| 4 2 | 1 3 |
+-----+-----+
Sudoku: 63
+-----+-----+
| 1 4 | 3 2 |
| 2 3 | 4 1 |
+-----+-----+
| 3 2 | 1 4 |
| 4 1 | 2 3 |
+-----+-----+
Sudoku: 64
+-----+-----+
| 1 4 | 3 2 |
| 2 3 | 4 1 |
+-----+-----+
| 4 1 | 2 3 |
| 3 2 | 1 4 |
+-----+-----+
Sudoku: 65
+-----+-----+
| 1 4 | 3 2 |
| 2 3 | 4 1 |
+-----+-----+
| 4 2 | 1 3 |
| 3 1 | 2 4 |
+-----+-----+
Sudoku: 66
+-----+-----+
| 1 4 | 3 2 |
| 3 2 | 1 4 |
+-----+-----+
| 2 1 | 4 3 |
| 4 3 | 2 1 |
+-----+-----+
Sudoku: 67
+-----+-----+
| 1 4 | 3 2 |
| 3 2 | 1 4 |
+-----+-----+
| 2 3 | 4 1 |
| 4 1 | 2 3 |
+-----+-----+
Sudoku: 68
+-----+-----+
| 1 4 | 3 2 |
| 3 2 | 1 4 |
+-----+-----+
| 4 1 | 2 3 |
| 2 3 | 4 1 |
+-----+-----+
Sudoku: 69
+-----+-----+
| 1 4 | 3 2 |
| 3 2 | 1 4 |
+-----+-----+
| 4 3 | 2 1 |
| 2 1 | 4 3 |
+-----+-----+
Sudoku: 70
+-----+-----+
| 1 4 | 3 2 |
| 3 2 | 4 1 |
+-----+-----+
| 2 3 | 1 4 |
| 4 1 | 2 3 |
+-----+-----+
Sudoku: 71
+-----+-----+
| 1 4 | 3 2 |
| 3 2 | 4 1 |
+-----+-----+
| 4 1 | 2 3 |
| 2 3 | 1 4 |
+-----+-----+
Sudoku: 72
+-----+-----+
| 2 1 | 3 4 |
| 3 4 | 1 2 |
+-----+-----+
| 1 2 | 4 3 |
| 4 3 | 2 1 |
+-----+-----+
Sudoku: 73
+-----+-----+
| 2 1 | 3 4 |
| 3 4 | 1 2 |
+-----+-----+
| 4 3 | 2 1 |
| 1 2 | 4 3 |
+-----+-----+
Sudoku: 74
+-----+-----+
| 2 1 | 3 4 |
| 3 4 | 2 1 |
+-----+-----+
| 1 2 | 4 3 |
| 4 3 | 1 2 |
+-----+-----+
Sudoku: 75
+-----+-----+
| 2 1 | 3 4 |
| 3 4 | 2 1 |
+-----+-----+
| 1 3 | 4 2 |
| 4 2 | 1 3 |
+-----+-----+
Sudoku: 76
+-----+-----+
| 2 1 | 3 4 |
| 3 4 | 2 1 |
+-----+-----+
| 4 2 | 1 3 |
| 1 3 | 4 2 |
+-----+-----+
Sudoku: 77
+-----+-----+
| 2 1 | 3 4 |
| 3 4 | 2 1 |
+-----+-----+
| 4 3 | 1 2 |
| 1 2 | 4 3 |
+-----+-----+
Sudoku: 78
+-----+-----+
| 2 1 | 3 4 |
| 4 3 | 1 2 |
+-----+-----+
| 1 2 | 4 3 |
| 3 4 | 2 1 |
+-----+-----+
Sudoku: 79
+-----+-----+
| 2 1 | 3 4 |
| 4 3 | 1 2 |
+-----+-----+
| 1 4 | 2 3 |
| 3 2 | 4 1 |
+-----+-----+
Sudoku: 80
+-----+-----+
| 2 1 | 3 4 |
| 4 3 | 1 2 |
+-----+-----+
| 3 2 | 4 1 |
| 1 4 | 2 3 |
+-----+-----+
Sudoku: 81
+-----+-----+
| 2 1 | 3 4 |
| 4 3 | 1 2 |
+-----+-----+
| 3 4 | 2 1 |
| 1 2 | 4 3 |
+-----+-----+
Sudoku: 82
+-----+-----+
| 2 1 | 3 4 |
| 4 3 | 2 1 |
+-----+-----+
| 1 2 | 4 3 |
| 3 4 | 1 2 |
+-----+-----+
Sudoku: 83
+-----+-----+
| 2 1 | 3 4 |
| 4 3 | 2 1 |
+-----+-----+
| 3 4 | 1 2 |
| 1 2 | 4 3 |
+-----+-----+
Sudoku: 84
+-----+-----+
| 2 1 | 4 3 |
| 3 4 | 1 2 |
+-----+-----+
| 1 2 | 3 4 |
| 4 3 | 2 1 |
+-----+-----+
Sudoku: 85
+-----+-----+
| 2 1 | 4 3 |
| 3 4 | 1 2 |
+-----+-----+
| 1 3 | 2 4 |
| 4 2 | 3 1 |
+-----+-----+
Sudoku: 86
+-----+-----+
| 2 1 | 4 3 |
| 3 4 | 1 2 |
+-----+-----+
| 4 2 | 3 1 |
| 1 3 | 2 4 |
+-----+-----+
Sudoku: 87
+-----+-----+
| 2 1 | 4 3 |
| 3 4 | 1 2 |
+-----+-----+
| 4 3 | 2 1 |
| 1 2 | 3 4 |
+-----+-----+
Sudoku: 88
+-----+-----+
| 2 1 | 4 3 |
| 3 4 | 2 1 |
+-----+-----+
| 1 2 | 3 4 |
| 4 3 | 1 2 |
+-----+-----+
Sudoku: 89
+-----+-----+
| 2 1 | 4 3 |
| 3 4 | 2 1 |
+-----+-----+
| 4 3 | 1 2 |
| 1 2 | 3 4 |
+-----+-----+
Sudoku: 90
+-----+-----+
| 2 1 | 4 3 |
| 4 3 | 1 2 |
+-----+-----+
| 1 2 | 3 4 |
| 3 4 | 2 1 |
+-----+-----+
Sudoku: 91
+-----+-----+
| 2 1 | 4 3 |
| 4 3 | 1 2 |
+-----+-----+
| 3 4 | 2 1 |
| 1 2 | 3 4 |
+-----+-----+
Sudoku: 92
+-----+-----+
| 2 1 | 4 3 |
| 4 3 | 2 1 |
+-----+-----+
| 1 2 | 3 4 |
| 3 4 | 1 2 |
+-----+-----+
Sudoku: 93
+-----+-----+
| 2 1 | 4 3 |
| 4 3 | 2 1 |
+-----+-----+
| 1 4 | 3 2 |
| 3 2 | 1 4 |
+-----+-----+
Sudoku: 94
+-----+-----+
| 2 1 | 4 3 |
| 4 3 | 2 1 |
+-----+-----+
| 3 2 | 1 4 |
| 1 4 | 3 2 |
+-----+-----+
Sudoku: 95
+-----+-----+
| 2 1 | 4 3 |
| 4 3 | 2 1 |
+-----+-----+
| 3 4 | 1 2 |
| 1 2 | 3 4 |
+-----+-----+
Sudoku: 96
+-----+-----+
| 2 3 | 1 4 |
| 1 4 | 2 3 |
+-----+-----+
| 3 1 | 4 2 |
| 4 2 | 3 1 |
+-----+-----+
Sudoku: 97
+-----+-----+
| 2 3 | 1 4 |
| 1 4 | 2 3 |
+-----+-----+
| 3 2 | 4 1 |
| 4 1 | 3 2 |
+-----+-----+
Sudoku: 98
+-----+-----+
| 2 3 | 1 4 |
| 1 4 | 2 3 |
+-----+-----+
| 4 1 | 3 2 |
| 3 2 | 4 1 |
+-----+-----+
Sudoku: 99
+-----+-----+
| 2 3 | 1 4 |
| 1 4 | 2 3 |
+-----+-----+
| 4 2 | 3 1 |
| 3 1 | 4 2 |
+-----+-----+
Sudoku: 100
+-----+-----+
| 2 3 | 1 4 |
| 1 4 | 3 2 |
+-----+-----+
| 3 2 | 4 1 |
| 4 1 | 2 3 |
+-----+-----+
Sudoku: 101
+-----+-----+
| 2 3 | 1 4 |
| 1 4 | 3 2 |
+-----+-----+
| 4 1 | 2 3 |
| 3 2 | 4 1 |
+-----+-----+
Sudoku: 102
+-----+-----+
| 2 3 | 1 4 |
| 4 1 | 2 3 |
+-----+-----+
| 1 4 | 3 2 |
| 3 2 | 4 1 |
+-----+-----+
Sudoku: 103
+-----+-----+
| 2 3 | 1 4 |
| 4 1 | 2 3 |
+-----+-----+
| 3 2 | 4 1 |
| 1 4 | 3 2 |
+-----+-----+
Sudoku: 104
+-----+-----+
| 2 3 | 1 4 |
| 4 1 | 3 2 |
+-----+-----+
| 1 2 | 4 3 |
| 3 4 | 2 1 |
+-----+-----+
Sudoku: 105
+-----+-----+
| 2 3 | 1 4 |
| 4 1 | 3 2 |
+-----+-----+
| 1 4 | 2 3 |
| 3 2 | 4 1 |
+-----+-----+
Sudoku: 106
+-----+-----+
| 2 3 | 1 4 |
| 4 1 | 3 2 |
+-----+-----+
| 3 2 | 4 1 |
| 1 4 | 2 3 |
+-----+-----+
Sudoku: 107
+-----+-----+
| 2 3 | 1 4 |
| 4 1 | 3 2 |
+-----+-----+
| 3 4 | 2 1 |
| 1 2 | 4 3 |
+-----+-----+
Sudoku: 108
+-----+-----+
| 2 3 | 4 1 |
| 1 4 | 2 3 |
+-----+-----+
| 3 2 | 1 4 |
| 4 1 | 3 2 |
+-----+-----+
Sudoku: 109
+-----+-----+
| 2 3 | 4 1 |
| 1 4 | 2 3 |
+-----+-----+
| 4 1 | 3 2 |
| 3 2 | 1 4 |
+-----+-----+
Sudoku: 110
+-----+-----+
| 2 3 | 4 1 |
| 1 4 | 3 2 |
+-----+-----+
| 3 1 | 2 4 |
| 4 2 | 1 3 |
+-----+-----+
Sudoku: 111
+-----+-----+
| 2 3 | 4 1 |
| 1 4 | 3 2 |
+-----+-----+
| 3 2 | 1 4 |
| 4 1 | 2 3 |
+-----+-----+
Sudoku: 112
+-----+-----+
| 2 3 | 4 1 |
| 1 4 | 3 2 |
+-----+-----+
| 4 1 | 2 3 |
| 3 2 | 1 4 |
+-----+-----+
Sudoku: 113
+-----+-----+
| 2 3 | 4 1 |
| 1 4 | 3 2 |
+-----+-----+
| 4 2 | 1 3 |
| 3 1 | 2 4 |
+-----+-----+
Sudoku: 114
+-----+-----+
| 2 3 | 4 1 |
| 4 1 | 2 3 |
+-----+-----+
| 1 2 | 3 4 |
| 3 4 | 1 2 |
+-----+-----+
Sudoku: 115
+-----+-----+
| 2 3 | 4 1 |
| 4 1 | 2 3 |
+-----+-----+
| 1 4 | 3 2 |
| 3 2 | 1 4 |
+-----+-----+
Sudoku: 116
+-----+-----+
| 2 3 | 4 1 |
| 4 1 | 2 3 |
+-----+-----+
| 3 2 | 1 4 |
| 1 4 | 3 2 |
+-----+-----+
Sudoku: 117
+-----+-----+
| 2 3 | 4 1 |
| 4 1 | 2 3 |
+-----+-----+
| 3 4 | 1 2 |
| 1 2 | 3 4 |
+-----+-----+
Sudoku: 118
+-----+-----+
| 2 3 | 4 1 |
| 4 1 | 3 2 |
+-----+-----+
| 1 4 | 2 3 |
| 3 2 | 1 4 |
+-----+-----+
Sudoku: 119
+-----+-----+
| 2 3 | 4 1 |
| 4 1 | 3 2 |
+-----+-----+
| 3 2 | 1 4 |
| 1 4 | 2 3 |
+-----+-----+
Sudoku: 120
+-----+-----+
| 2 4 | 1 3 |
| 1 3 | 2 4 |
+-----+-----+
| 3 1 | 4 2 |
| 4 2 | 3 1 |
+-----+-----+
Sudoku: 121
+-----+-----+
| 2 4 | 1 3 |
| 1 3 | 2 4 |
+-----+-----+
| 3 2 | 4 1 |
| 4 1 | 3 2 |
+-----+-----+
Sudoku: 122
+-----+-----+
| 2 4 | 1 3 |
| 1 3 | 2 4 |
+-----+-----+
| 4 1 | 3 2 |
| 3 2 | 4 1 |
+-----+-----+
Sudoku: 123
+-----+-----+
| 2 4 | 1 3 |
| 1 3 | 2 4 |
+-----+-----+
| 4 2 | 3 1 |
| 3 1 | 4 2 |
+-----+-----+
Sudoku: 124
+-----+-----+
| 2 4 | 1 3 |
| 1 3 | 4 2 |
+-----+-----+
| 3 1 | 2 4 |
| 4 2 | 3 1 |
+-----+-----+
Sudoku: 125
+-----+-----+
| 2 4 | 1 3 |
| 1 3 | 4 2 |
+-----+-----+
| 4 2 | 3 1 |
| 3 1 | 2 4 |
+-----+-----+
Sudoku: 126
+-----+-----+
| 2 4 | 1 3 |
| 3 1 | 2 4 |
+-----+-----+
| 1 3 | 4 2 |
| 4 2 | 3 1 |
+-----+-----+
Sudoku: 127
+-----+-----+
| 2 4 | 1 3 |
| 3 1 | 2 4 |
+-----+-----+
| 4 2 | 3 1 |
| 1 3 | 4 2 |
+-----+-----+
Sudoku: 128
+-----+-----+
| 2 4 | 1 3 |
| 3 1 | 4 2 |
+-----+-----+
| 1 2 | 3 4 |
| 4 3 | 2 1 |
+-----+-----+
Sudoku: 129
+-----+-----+
| 2 4 | 1 3 |
| 3 1 | 4 2 |
+-----+-----+
| 1 3 | 2 4 |
| 4 2 | 3 1 |
+-----+-----+
Sudoku: 130
+-----+-----+
| 2 4 | 1 3 |
| 3 1 | 4 2 |
+-----+-----+
| 4 2 | 3 1 |
| 1 3 | 2 4 |
+-----+-----+
Sudoku: 131
+-----+-----+
| 2 4 | 1 3 |
| 3 1 | 4 2 |
+-----+-----+
| 4 3 | 2 1 |
| 1 2 | 3 4 |
+-----+-----+
Sudoku: 132
+-----+-----+
| 2 4 | 3 1 |
| 1 3 | 2 4 |
+-----+-----+
| 3 1 | 4 2 |
| 4 2 | 1 3 |
+-----+-----+
Sudoku: 133
+-----+-----+
| 2 4 | 3 1 |
| 1 3 | 2 4 |
+-----+-----+
| 4 2 | 1 3 |
| 3 1 | 4 2 |
+-----+-----+
Sudoku: 134
+-----+-----+
| 2 4 | 3 1 |
| 1 3 | 4 2 |
+-----+-----+
| 3 1 | 2 4 |
| 4 2 | 1 3 |
+-----+-----+
Sudoku: 135
+-----+-----+
| 2 4 | 3 1 |
| 1 3 | 4 2 |
+-----+-----+
| 3 2 | 1 4 |
| 4 1 | 2 3 |
+-----+-----+
Sudoku: 136
+-----+-----+
| 2 4 | 3 1 |
| 1 3 | 4 2 |
+-----+-----+
| 4 1 | 2 3 |
| 3 2 | 1 4 |
+-----+-----+
Sudoku: 137
+-----+-----+
| 2 4 | 3 1 |
| 1 3 | 4 2 |
+-----+-----+
| 4 2 | 1 3 |
| 3 1 | 2 4 |
+-----+-----+
Sudoku: 138
+-----+-----+
| 2 4 | 3 1 |
| 3 1 | 2 4 |
+-----+-----+
| 1 2 | 4 3 |
| 4 3 | 1 2 |
+-----+-----+
Sudoku: 139
+-----+-----+
| 2 4 | 3 1 |
| 3 1 | 2 4 |
+-----+-----+
| 1 3 | 4 2 |
| 4 2 | 1 3 |
+-----+-----+
Sudoku: 140
+-----+-----+
| 2 4 | 3 1 |
| 3 1 | 2 4 |
+-----+-----+
| 4 2 | 1 3 |
| 1 3 | 4 2 |
+-----+-----+
Sudoku: 141
+-----+-----+
| 2 4 | 3 1 |
| 3 1 | 2 4 |
+-----+-----+
| 4 3 | 1 2 |
| 1 2 | 4 3 |
+-----+-----+
Sudoku: 142
+-----+-----+
| 2 4 | 3 1 |
| 3 1 | 4 2 |
+-----+-----+
| 1 3 | 2 4 |
| 4 2 | 1 3 |
+-----+-----+
Sudoku: 143
+-----+-----+
| 2 4 | 3 1 |
| 3 1 | 4 2 |
+-----+-----+
| 4 2 | 1 3 |
| 1 3 | 2 4 |
+-----+-----+
Sudoku: 144
+-----+-----+
| 3 1 | 2 4 |
| 2 4 | 1 3 |
+-----+-----+
| 1 3 | 4 2 |
| 4 2 | 3 1 |
+-----+-----+
Sudoku: 145
+-----+-----+
| 3 1 | 2 4 |
| 2 4 | 1 3 |
+-----+-----+
| 4 2 | 3 1 |
| 1 3 | 4 2 |
+-----+-----+
Sudoku: 146
+-----+-----+
| 3 1 | 2 4 |
| 2 4 | 3 1 |
+-----+-----+
| 1 2 | 4 3 |
| 4 3 | 1 2 |
+-----+-----+
Sudoku: 147
+-----+-----+
| 3 1 | 2 4 |
| 2 4 | 3 1 |
+-----+-----+
| 1 3 | 4 2 |
| 4 2 | 1 3 |
+-----+-----+
Sudoku: 148
+-----+-----+
| 3 1 | 2 4 |
| 2 4 | 3 1 |
+-----+-----+
| 4 2 | 1 3 |
| 1 3 | 4 2 |
+-----+-----+
Sudoku: 149
+-----+-----+
| 3 1 | 2 4 |
| 2 4 | 3 1 |
+-----+-----+
| 4 3 | 1 2 |
| 1 2 | 4 3 |
+-----+-----+
Sudoku: 150
+-----+-----+
| 3 1 | 2 4 |
| 4 2 | 1 3 |
+-----+-----+
| 1 3 | 4 2 |
| 2 4 | 3 1 |
+-----+-----+
Sudoku: 151
+-----+-----+
| 3 1 | 2 4 |
| 4 2 | 1 3 |
+-----+-----+
| 1 4 | 3 2 |
| 2 3 | 4 1 |
+-----+-----+
Sudoku: 152
+-----+-----+
| 3 1 | 2 4 |
| 4 2 | 1 3 |
+-----+-----+
| 2 3 | 4 1 |
| 1 4 | 3 2 |
+-----+-----+
Sudoku: 153
+-----+-----+
| 3 1 | 2 4 |
| 4 2 | 1 3 |
+-----+-----+
| 2 4 | 3 1 |
| 1 3 | 4 2 |
+-----+-----+
Sudoku: 154
+-----+-----+
| 3 1 | 2 4 |
| 4 2 | 3 1 |
+-----+-----+
| 1 3 | 4 2 |
| 2 4 | 1 3 |
+-----+-----+
Sudoku: 155
+-----+-----+
| 3 1 | 2 4 |
| 4 2 | 3 1 |
+-----+-----+
| 2 4 | 1 3 |
| 1 3 | 4 2 |
+-----+-----+
Sudoku: 156
+-----+-----+
| 3 1 | 4 2 |
| 2 4 | 1 3 |
+-----+-----+
| 1 2 | 3 4 |
| 4 3 | 2 1 |
+-----+-----+
Sudoku: 157
+-----+-----+
| 3 1 | 4 2 |
| 2 4 | 1 3 |
+-----+-----+
| 1 3 | 2 4 |
| 4 2 | 3 1 |
+-----+-----+
Sudoku: 158
+-----+-----+
| 3 1 | 4 2 |
| 2 4 | 1 3 |
+-----+-----+
| 4 2 | 3 1 |
| 1 3 | 2 4 |
+-----+-----+
Sudoku: 159
+-----+-----+
| 3 1 | 4 2 |
| 2 4 | 1 3 |
+-----+-----+
| 4 3 | 2 1 |
| 1 2 | 3 4 |
+-----+-----+
Sudoku: 160
+-----+-----+
| 3 1 | 4 2 |
| 2 4 | 3 1 |
+-----+-----+
| 1 3 | 2 4 |
| 4 2 | 1 3 |
+-----+-----+
Sudoku: 161
+-----+-----+
| 3 1 | 4 2 |
| 2 4 | 3 1 |
+-----+-----+
| 4 2 | 1 3 |
| 1 3 | 2 4 |
+-----+-----+
Sudoku: 162
+-----+-----+
| 3 1 | 4 2 |
| 4 2 | 1 3 |
+-----+-----+
| 1 3 | 2 4 |
| 2 4 | 3 1 |
+-----+-----+
Sudoku: 163
+-----+-----+
| 3 1 | 4 2 |
| 4 2 | 1 3 |
+-----+-----+
| 2 4 | 3 1 |
| 1 3 | 2 4 |
+-----+-----+
Sudoku: 164
+-----+-----+
| 3 1 | 4 2 |
| 4 2 | 3 1 |
+-----+-----+
| 1 3 | 2 4 |
| 2 4 | 1 3 |
+-----+-----+
Sudoku: 165
+-----+-----+
| 3 1 | 4 2 |
| 4 2 | 3 1 |
+-----+-----+
| 1 4 | 2 3 |
| 2 3 | 1 4 |
+-----+-----+
Sudoku: 166
+-----+-----+
| 3 1 | 4 2 |
| 4 2 | 3 1 |
+-----+-----+
| 2 3 | 1 4 |
| 1 4 | 2 3 |
+-----+-----+
Sudoku: 167
+-----+-----+
| 3 1 | 4 2 |
| 4 2 | 3 1 |
+-----+-----+
| 2 4 | 1 3 |
| 1 3 | 2 4 |
+-----+-----+
Sudoku: 168
+-----+-----+
| 3 2 | 1 4 |
| 1 4 | 2 3 |
+-----+-----+
| 2 3 | 4 1 |
| 4 1 | 3 2 |
+-----+-----+
Sudoku: 169
+-----+-----+
| 3 2 | 1 4 |
| 1 4 | 2 3 |
+-----+-----+
| 4 1 | 3 2 |
| 2 3 | 4 1 |
+-----+-----+
Sudoku: 170
+-----+-----+
| 3 2 | 1 4 |
| 1 4 | 3 2 |
+-----+-----+
| 2 1 | 4 3 |
| 4 3 | 2 1 |
+-----+-----+
Sudoku: 171
+-----+-----+
| 3 2 | 1 4 |
| 1 4 | 3 2 |
+-----+-----+
| 2 3 | 4 1 |
| 4 1 | 2 3 |
+-----+-----+
Sudoku: 172
+-----+-----+
| 3 2 | 1 4 |
| 1 4 | 3 2 |
+-----+-----+
| 4 1 | 2 3 |
| 2 3 | 4 1 |
+-----+-----+
Sudoku: 173
+-----+-----+
| 3 2 | 1 4 |
| 1 4 | 3 2 |
+-----+-----+
| 4 3 | 2 1 |
| 2 1 | 4 3 |
+-----+-----+
Sudoku: 174
+-----+-----+
| 3 2 | 1 4 |
| 4 1 | 2 3 |
+-----+-----+
| 1 3 | 4 2 |
| 2 4 | 3 1 |
+-----+-----+
Sudoku: 175
+-----+-----+
| 3 2 | 1 4 |
| 4 1 | 2 3 |
+-----+-----+
| 1 4 | 3 2 |
| 2 3 | 4 1 |
+-----+-----+
Sudoku: 176
+-----+-----+
| 3 2 | 1 4 |
| 4 1 | 2 3 |
+-----+-----+
| 2 3 | 4 1 |
| 1 4 | 3 2 |
+-----+-----+
Sudoku: 177
+-----+-----+
| 3 2 | 1 4 |
| 4 1 | 2 3 |
+-----+-----+
| 2 4 | 3 1 |
| 1 3 | 4 2 |
+-----+-----+
Sudoku: 178
+-----+-----+
| 3 2 | 1 4 |
| 4 1 | 3 2 |
+-----+-----+
| 1 4 | 2 3 |
| 2 3 | 4 1 |
+-----+-----+
Sudoku: 179
+-----+-----+
| 3 2 | 1 4 |
| 4 1 | 3 2 |
+-----+-----+
| 2 3 | 4 1 |
| 1 4 | 2 3 |
+-----+-----+
Sudoku: 180
+-----+-----+
| 3 2 | 4 1 |
| 1 4 | 2 3 |
+-----+-----+
| 2 1 | 3 4 |
| 4 3 | 1 2 |
+-----+-----+
Sudoku: 181
+-----+-----+
| 3 2 | 4 1 |
| 1 4 | 2 3 |
+-----+-----+
| 2 3 | 1 4 |
| 4 1 | 3 2 |
+-----+-----+
Sudoku: 182
+-----+-----+
| 3 2 | 4 1 |
| 1 4 | 2 3 |
+-----+-----+
| 4 1 | 3 2 |
| 2 3 | 1 4 |
+-----+-----+
Sudoku: 183
+-----+-----+
| 3 2 | 4 1 |
| 1 4 | 2 3 |
+-----+-----+
| 4 3 | 1 2 |
| 2 1 | 3 4 |
+-----+-----+
Sudoku: 184
+-----+-----+
| 3 2 | 4 1 |
| 1 4 | 3 2 |
+-----+-----+
| 2 3 | 1 4 |
| 4 1 | 2 3 |
+-----+-----+
Sudoku: 185
+-----+-----+
| 3 2 | 4 1 |
| 1 4 | 3 2 |
+-----+-----+
| 4 1 | 2 3 |
| 2 3 | 1 4 |
+-----+-----+
Sudoku: 186
+-----+-----+
| 3 2 | 4 1 |
| 4 1 | 2 3 |
+-----+-----+
| 1 4 | 3 2 |
| 2 3 | 1 4 |
+-----+-----+
Sudoku: 187
+-----+-----+
| 3 2 | 4 1 |
| 4 1 | 2 3 |
+-----+-----+
| 2 3 | 1 4 |
| 1 4 | 3 2 |
+-----+-----+
Sudoku: 188
+-----+-----+
| 3 2 | 4 1 |
| 4 1 | 3 2 |
+-----+-----+
| 1 3 | 2 4 |
| 2 4 | 1 3 |
+-----+-----+
Sudoku: 189
+-----+-----+
| 3 2 | 4 1 |
| 4 1 | 3 2 |
+-----+-----+
| 1 4 | 2 3 |
| 2 3 | 1 4 |
+-----+-----+
Sudoku: 190
+-----+-----+
| 3 2 | 4 1 |
| 4 1 | 3 2 |
+-----+-----+
| 2 3 | 1 4 |
| 1 4 | 2 3 |
+-----+-----+
Sudoku: 191
+-----+-----+
| 3 2 | 4 1 |
| 4 1 | 3 2 |
+-----+-----+
| 2 4 | 1 3 |
| 1 3 | 2 4 |
+-----+-----+
Sudoku: 192
+-----+-----+
| 3 4 | 1 2 |
| 1 2 | 3 4 |
+-----+-----+
| 2 1 | 4 3 |
| 4 3 | 2 1 |
+-----+-----+
Sudoku: 193
+-----+-----+
| 3 4 | 1 2 |
| 1 2 | 3 4 |
+-----+-----+
| 2 3 | 4 1 |
| 4 1 | 2 3 |
+-----+-----+
Sudoku: 194
+-----+-----+
| 3 4 | 1 2 |
| 1 2 | 3 4 |
+-----+-----+
| 4 1 | 2 3 |
| 2 3 | 4 1 |
+-----+-----+
Sudoku: 195
+-----+-----+
| 3 4 | 1 2 |
| 1 2 | 3 4 |
+-----+-----+
| 4 3 | 2 1 |
| 2 1 | 4 3 |
+-----+-----+
Sudoku: 196
+-----+-----+
| 3 4 | 1 2 |
| 1 2 | 4 3 |
+-----+-----+
| 2 1 | 3 4 |
| 4 3 | 2 1 |
+-----+-----+
Sudoku: 197
+-----+-----+
| 3 4 | 1 2 |
| 1 2 | 4 3 |
+-----+-----+
| 4 3 | 2 1 |
| 2 1 | 3 4 |
+-----+-----+
Sudoku: 198
+-----+-----+
| 3 4 | 1 2 |
| 2 1 | 3 4 |
+-----+-----+
| 1 2 | 4 3 |
| 4 3 | 2 1 |
+-----+-----+
Sudoku: 199
+-----+-----+
| 3 4 | 1 2 |
| 2 1 | 3 4 |
+-----+-----+
| 4 3 | 2 1 |
| 1 2 | 4 3 |
+-----+-----+
Sudoku: 200
+-----+-----+
| 3 4 | 1 2 |
| 2 1 | 4 3 |
+-----+-----+
| 1 2 | 3 4 |
| 4 3 | 2 1 |
+-----+-----+
Sudoku: 201
+-----+-----+
| 3 4 | 1 2 |
| 2 1 | 4 3 |
+-----+-----+
| 1 3 | 2 4 |
| 4 2 | 3 1 |
+-----+-----+
Sudoku: 202
+-----+-----+
| 3 4 | 1 2 |
| 2 1 | 4 3 |
+-----+-----+
| 4 2 | 3 1 |
| 1 3 | 2 4 |
+-----+-----+
Sudoku: 203
+-----+-----+
| 3 4 | 1 2 |
| 2 1 | 4 3 |
+-----+-----+
| 4 3 | 2 1 |
| 1 2 | 3 4 |
+-----+-----+
Sudoku: 204
+-----+-----+
| 3 4 | 2 1 |
| 1 2 | 3 4 |
+-----+-----+
| 2 1 | 4 3 |
| 4 3 | 1 2 |
+-----+-----+
Sudoku: 205
+-----+-----+
| 3 4 | 2 1 |
| 1 2 | 3 4 |
+-----+-----+
| 4 3 | 1 2 |
| 2 1 | 4 3 |
+-----+-----+
Sudoku: 206
+-----+-----+
| 3 4 | 2 1 |
| 1 2 | 4 3 |
+-----+-----+
| 2 1 | 3 4 |
| 4 3 | 1 2 |
+-----+-----+
Sudoku: 207
+-----+-----+
| 3 4 | 2 1 |
| 1 2 | 4 3 |
+-----+-----+
| 2 3 | 1 4 |
| 4 1 | 3 2 |
+-----+-----+
Sudoku: 208
+-----+-----+
| 3 4 | 2 1 |
| 1 2 | 4 3 |
+-----+-----+
| 4 1 | 3 2 |
| 2 3 | 1 4 |
+-----+-----+
Sudoku: 209
+-----+-----+
| 3 4 | 2 1 |
| 1 2 | 4 3 |
+-----+-----+
| 4 3 | 1 2 |
| 2 1 | 3 4 |
+-----+-----+
Sudoku: 210
+-----+-----+
| 3 4 | 2 1 |
| 2 1 | 3 4 |
+-----+-----+
| 1 2 | 4 3 |
| 4 3 | 1 2 |
+-----+-----+
Sudoku: 211
+-----+-----+
| 3 4 | 2 1 |
| 2 1 | 3 4 |
+-----+-----+
| 1 3 | 4 2 |
| 4 2 | 1 3 |
+-----+-----+
Sudoku: 212
+-----+-----+
| 3 4 | 2 1 |
| 2 1 | 3 4 |
+-----+-----+
| 4 2 | 1 3 |
| 1 3 | 4 2 |
+-----+-----+
Sudoku: 213
+-----+-----+
| 3 4 | 2 1 |
| 2 1 | 3 4 |
+-----+-----+
| 4 3 | 1 2 |
| 1 2 | 4 3 |
+-----+-----+
Sudoku: 214
+-----+-----+
| 3 4 | 2 1 |
| 2 1 | 4 3 |
+-----+-----+
| 1 2 | 3 4 |
| 4 3 | 1 2 |
+-----+-----+
Sudoku: 215
+-----+-----+
| 3 4 | 2 1 |
| 2 1 | 4 3 |
+-----+-----+
| 4 3 | 1 2 |
| 1 2 | 3 4 |
+-----+-----+
Sudoku: 216
+-----+-----+
| 4 1 | 2 3 |
| 2 3 | 1 4 |
+-----+-----+
| 1 4 | 3 2 |
| 3 2 | 4 1 |
+-----+-----+
Sudoku: 217
+-----+-----+
| 4 1 | 2 3 |
| 2 3 | 1 4 |
+-----+-----+
| 3 2 | 4 1 |
| 1 4 | 3 2 |
+-----+-----+
Sudoku: 218
+-----+-----+
| 4 1 | 2 3 |
| 2 3 | 4 1 |
+-----+-----+
| 1 2 | 3 4 |
| 3 4 | 1 2 |
+-----+-----+
Sudoku: 219
+-----+-----+
| 4 1 | 2 3 |
| 2 3 | 4 1 |
+-----+-----+
| 1 4 | 3 2 |
| 3 2 | 1 4 |
+-----+-----+
Sudoku: 220
+-----+-----+
| 4 1 | 2 3 |
| 2 3 | 4 1 |
+-----+-----+
| 3 2 | 1 4 |
| 1 4 | 3 2 |
+-----+-----+
Sudoku: 221
+-----+-----+
| 4 1 | 2 3 |
| 2 3 | 4 1 |
+-----+-----+
| 3 4 | 1 2 |
| 1 2 | 3 4 |
+-----+-----+
Sudoku: 222
+-----+-----+
| 4 1 | 2 3 |
| 3 2 | 1 4 |
+-----+-----+
| 1 3 | 4 2 |
| 2 4 | 3 1 |
+-----+-----+
Sudoku: 223
+-----+-----+
| 4 1 | 2 3 |
| 3 2 | 1 4 |
+-----+-----+
| 1 4 | 3 2 |
| 2 3 | 4 1 |
+-----+-----+
Sudoku: 224
+-----+-----+
| 4 1 | 2 3 |
| 3 2 | 1 4 |
+-----+-----+
| 2 3 | 4 1 |
| 1 4 | 3 2 |
+-----+-----+
Sudoku: 225
+-----+-----+
| 4 1 | 2 3 |
| 3 2 | 1 4 |
+-----+-----+
| 2 4 | 3 1 |
| 1 3 | 4 2 |
+-----+-----+
Sudoku: 226
+-----+-----+
| 4 1 | 2 3 |
| 3 2 | 4 1 |
+-----+-----+
| 1 4 | 3 2 |
| 2 3 | 1 4 |
+-----+-----+
Sudoku: 227
+-----+-----+
| 4 1 | 2 3 |
| 3 2 | 4 1 |
+-----+-----+
| 2 3 | 1 4 |
| 1 4 | 3 2 |
+-----+-----+
Sudoku: 228
+-----+-----+
| 4 1 | 3 2 |
| 2 3 | 1 4 |
+-----+-----+
| 1 2 | 4 3 |
| 3 4 | 2 1 |
+-----+-----+
Sudoku: 229
+-----+-----+
| 4 1 | 3 2 |
| 2 3 | 1 4 |
+-----+-----+
| 1 4 | 2 3 |
| 3 2 | 4 1 |
+-----+-----+
Sudoku: 230
+-----+-----+
| 4 1 | 3 2 |
| 2 3 | 1 4 |
+-----+-----+
| 3 2 | 4 1 |
| 1 4 | 2 3 |
+-----+-----+
Sudoku: 231
+-----+-----+
| 4 1 | 3 2 |
| 2 3 | 1 4 |
+-----+-----+
| 3 4 | 2 1 |
| 1 2 | 4 3 |
+-----+-----+
Sudoku: 232
+-----+-----+
| 4 1 | 3 2 |
| 2 3 | 4 1 |
+-----+-----+
| 1 4 | 2 3 |
| 3 2 | 1 4 |
+-----+-----+
Sudoku: 233
+-----+-----+
| 4 1 | 3 2 |
| 2 3 | 4 1 |
+-----+-----+
| 3 2 | 1 4 |
| 1 4 | 2 3 |
+-----+-----+
Sudoku: 234
+-----+-----+
| 4 1 | 3 2 |
| 3 2 | 1 4 |
+-----+-----+
| 1 4 | 2 3 |
| 2 3 | 4 1 |
+-----+-----+
Sudoku: 235
+-----+-----+
| 4 1 | 3 2 |
| 3 2 | 1 4 |
+-----+-----+
| 2 3 | 4 1 |
| 1 4 | 2 3 |
+-----+-----+
Sudoku: 236
+-----+-----+
| 4 1 | 3 2 |
| 3 2 | 4 1 |
+-----+-----+
| 1 3 | 2 4 |
| 2 4 | 1 3 |
+-----+-----+
Sudoku: 237
+-----+-----+
| 4 1 | 3 2 |
| 3 2 | 4 1 |
+-----+-----+
| 1 4 | 2 3 |
| 2 3 | 1 4 |
+-----+-----+
Sudoku: 238
+-----+-----+
| 4 1 | 3 2 |
| 3 2 | 4 1 |
+-----+-----+
| 2 3 | 1 4 |
| 1 4 | 2 3 |
+-----+-----+
Sudoku: 239
+-----+-----+
| 4 1 | 3 2 |
| 3 2 | 4 1 |
+-----+-----+
| 2 4 | 1 3 |
| 1 3 | 2 4 |
+-----+-----+
Sudoku: 240
+-----+-----+
| 4 2 | 1 3 |
| 1 3 | 2 4 |
+-----+-----+
| 2 4 | 3 1 |
| 3 1 | 4 2 |
+-----+-----+
Sudoku: 241
+-----+-----+
| 4 2 | 1 3 |
| 1 3 | 2 4 |
+-----+-----+
| 3 1 | 4 2 |
| 2 4 | 3 1 |
+-----+-----+
Sudoku: 242
+-----+-----+
| 4 2 | 1 3 |
| 1 3 | 4 2 |
+-----+-----+
| 2 1 | 3 4 |
| 3 4 | 2 1 |
+-----+-----+
Sudoku: 243
+-----+-----+
| 4 2 | 1 3 |
| 1 3 | 4 2 |
+-----+-----+
| 2 4 | 3 1 |
| 3 1 | 2 4 |
+-----+-----+
Sudoku: 244
+-----+-----+
| 4 2 | 1 3 |
| 1 3 | 4 2 |
+-----+-----+
| 3 1 | 2 4 |
| 2 4 | 3 1 |
+-----+-----+
Sudoku: 245
+-----+-----+
| 4 2 | 1 3 |
| 1 3 | 4 2 |
+-----+-----+
| 3 4 | 2 1 |
| 2 1 | 3 4 |
+-----+-----+
Sudoku: 246
+-----+-----+
| 4 2 | 1 3 |
| 3 1 | 2 4 |
+-----+-----+
| 1 3 | 4 2 |
| 2 4 | 3 1 |
+-----+-----+
Sudoku: 247
+-----+-----+
| 4 2 | 1 3 |
| 3 1 | 2 4 |
+-----+-----+
| 1 4 | 3 2 |
| 2 3 | 4 1 |
+-----+-----+
Sudoku: 248
+-----+-----+
| 4 2 | 1 3 |
| 3 1 | 2 4 |
+-----+-----+
| 2 3 | 4 1 |
| 1 4 | 3 2 |
+-----+-----+
Sudoku: 249
+-----+-----+
| 4 2 | 1 3 |
| 3 1 | 2 4 |
+-----+-----+
| 2 4 | 3 1 |
| 1 3 | 4 2 |
+-----+-----+
Sudoku: 250
+-----+-----+
| 4 2 | 1 3 |
| 3 1 | 4 2 |
+-----+-----+
| 1 3 | 2 4 |
| 2 4 | 3 1 |
+-----+-----+
Sudoku: 251
+-----+-----+
| 4 2 | 1 3 |
| 3 1 | 4 2 |
+-----+-----+
| 2 4 | 3 1 |
| 1 3 | 2 4 |
+-----+-----+
Sudoku: 252
+-----+-----+
| 4 2 | 3 1 |
| 1 3 | 2 4 |
+-----+-----+
| 2 1 | 4 3 |
| 3 4 | 1 2 |
+-----+-----+
Sudoku: 253
+-----+-----+
| 4 2 | 3 1 |
| 1 3 | 2 4 |
+-----+-----+
| 2 4 | 1 3 |
| 3 1 | 4 2 |
+-----+-----+
Sudoku: 254
+-----+-----+
| 4 2 | 3 1 |
| 1 3 | 2 4 |
+-----+-----+
| 3 1 | 4 2 |
| 2 4 | 1 3 |
+-----+-----+
Sudoku: 255
+-----+-----+
| 4 2 | 3 1 |
| 1 3 | 2 4 |
+-----+-----+
| 3 4 | 1 2 |
| 2 1 | 4 3 |
+-----+-----+
Sudoku: 256
+-----+-----+
| 4 2 | 3 1 |
| 1 3 | 4 2 |
+-----+-----+
| 2 4 | 1 3 |
| 3 1 | 2 4 |
+-----+-----+
Sudoku: 257
+-----+-----+
| 4 2 | 3 1 |
| 1 3 | 4 2 |
+-----+-----+
| 3 1 | 2 4 |
| 2 4 | 1 3 |
+-----+-----+
Sudoku: 258
+-----+-----+
| 4 2 | 3 1 |
| 3 1 | 2 4 |
+-----+-----+
| 1 3 | 4 2 |
| 2 4 | 1 3 |
+-----+-----+
Sudoku: 259
+-----+-----+
| 4 2 | 3 1 |
| 3 1 | 2 4 |
+-----+-----+
| 2 4 | 1 3 |
| 1 3 | 4 2 |
+-----+-----+
Sudoku: 260
+-----+-----+
| 4 2 | 3 1 |
| 3 1 | 4 2 |
+-----+-----+
| 1 3 | 2 4 |
| 2 4 | 1 3 |
+-----+-----+
Sudoku: 261
+-----+-----+
| 4 2 | 3 1 |
| 3 1 | 4 2 |
+-----+-----+
| 1 4 | 2 3 |
| 2 3 | 1 4 |
+-----+-----+
Sudoku: 262
+-----+-----+
| 4 2 | 3 1 |
| 3 1 | 4 2 |
+-----+-----+
| 2 3 | 1 4 |
| 1 4 | 2 3 |
+-----+-----+
Sudoku: 263
+-----+-----+
| 4 2 | 3 1 |
| 3 1 | 4 2 |
+-----+-----+
| 2 4 | 1 3 |
| 1 3 | 2 4 |
+-----+-----+
Sudoku: 264
+-----+-----+
| 4 3 | 1 2 |
| 1 2 | 3 4 |
+-----+-----+
| 2 1 | 4 3 |
| 3 4 | 2 1 |
+-----+-----+
Sudoku: 265
+-----+-----+
| 4 3 | 1 2 |
| 1 2 | 3 4 |
+-----+-----+
| 3 4 | 2 1 |
| 2 1 | 4 3 |
+-----+-----+
Sudoku: 266
+-----+-----+
| 4 3 | 1 2 |
| 1 2 | 4 3 |
+-----+-----+
| 2 1 | 3 4 |
| 3 4 | 2 1 |
+-----+-----+
Sudoku: 267
+-----+-----+
| 4 3 | 1 2 |
| 1 2 | 4 3 |
+-----+-----+
| 2 4 | 3 1 |
| 3 1 | 2 4 |
+-----+-----+
Sudoku: 268
+-----+-----+
| 4 3 | 1 2 |
| 1 2 | 4 3 |
+-----+-----+
| 3 1 | 2 4 |
| 2 4 | 3 1 |
+-----+-----+
Sudoku: 269
+-----+-----+
| 4 3 | 1 2 |
| 1 2 | 4 3 |
+-----+-----+
| 3 4 | 2 1 |
| 2 1 | 3 4 |
+-----+-----+
Sudoku: 270
+-----+-----+
| 4 3 | 1 2 |
| 2 1 | 3 4 |
+-----+-----+
| 1 2 | 4 3 |
| 3 4 | 2 1 |
+-----+-----+
Sudoku: 271
+-----+-----+
| 4 3 | 1 2 |
| 2 1 | 3 4 |
+-----+-----+
| 1 4 | 2 3 |
| 3 2 | 4 1 |
+-----+-----+
Sudoku: 272
+-----+-----+
| 4 3 | 1 2 |
| 2 1 | 3 4 |
+-----+-----+
| 3 2 | 4 1 |
| 1 4 | 2 3 |
+-----+-----+
Sudoku: 273
+-----+-----+
| 4 3 | 1 2 |
| 2 1 | 3 4 |
+-----+-----+
| 3 4 | 2 1 |
| 1 2 | 4 3 |
+-----+-----+
Sudoku: 274
+-----+-----+
| 4 3 | 1 2 |
| 2 1 | 4 3 |
+-----+-----+
| 1 2 | 3 4 |
| 3 4 | 2 1 |
+-----+-----+
Sudoku: 275
+-----+-----+
| 4 3 | 1 2 |
| 2 1 | 4 3 |
+-----+-----+
| 3 4 | 2 1 |
| 1 2 | 3 4 |
+-----+-----+
Sudoku: 276
+-----+-----+
| 4 3 | 2 1 |
| 1 2 | 3 4 |
+-----+-----+
| 2 1 | 4 3 |
| 3 4 | 1 2 |
+-----+-----+
Sudoku: 277
+-----+-----+
| 4 3 | 2 1 |
| 1 2 | 3 4 |
+-----+-----+
| 2 4 | 1 3 |
| 3 1 | 4 2 |
+-----+-----+
Sudoku: 278
+-----+-----+
| 4 3 | 2 1 |
| 1 2 | 3 4 |
+-----+-----+
| 3 1 | 4 2 |
| 2 4 | 1 3 |
+-----+-----+
Sudoku: 279
+-----+-----+
| 4 3 | 2 1 |
| 1 2 | 3 4 |
+-----+-----+
| 3 4 | 1 2 |
| 2 1 | 4 3 |
+-----+-----+
Sudoku: 280
+-----+-----+
| 4 3 | 2 1 |
| 1 2 | 4 3 |
+-----+-----+
| 2 1 | 3 4 |
| 3 4 | 1 2 |
+-----+-----+
Sudoku: 281
+-----+-----+
| 4 3 | 2 1 |
| 1 2 | 4 3 |
+-----+-----+
| 3 4 | 1 2 |
| 2 1 | 3 4 |
+-----+-----+
Sudoku: 282
+-----+-----+
| 4 3 | 2 1 |
| 2 1 | 3 4 |
+-----+-----+
| 1 2 | 4 3 |
| 3 4 | 1 2 |
+-----+-----+
Sudoku: 283
+-----+-----+
| 4 3 | 2 1 |
| 2 1 | 3 4 |
+-----+-----+
| 3 4 | 1 2 |
| 1 2 | 4 3 |
+-----+-----+
Sudoku: 284
+-----+-----+
| 4 3 | 2 1 |
| 2 1 | 4 3 |
+-----+-----+
| 1 2 | 3 4 |
| 3 4 | 1 2 |
+-----+-----+
Sudoku: 285
+-----+-----+
| 4 3 | 2 1 |
| 2 1 | 4 3 |
+-----+-----+
| 1 4 | 3 2 |
| 3 2 | 1 4 |
+-----+-----+
Sudoku: 286
+-----+-----+
| 4 3 | 2 1 |
| 2 1 | 4 3 |
+-----+-----+
| 3 2 | 1 4 |
| 1 4 | 3 2 |
+-----+-----+
Sudoku: 287
+-----+-----+
| 4 3 | 2 1 |
| 2 1 | 4 3 |
+-----+-----+
| 3 4 | 1 2 |
| 1 2 | 3 4 |
+-----+-----+